Assignment 3
…
# (4) src as a "directory" and tokens as "trigrams"
check_tidy_corpus <- tidy_corpus("C:/Users/mouni/Downloads/Sem 1/R Lang/Datasets/full_speech.txt", token = "ngrams", n = 3)
check_tidy_corpus

## $corpus
## # A tibble: 235,089 x 2
##     line token              
##  * <int> <chr>              
##  1     1 trump wow whoa     
##  2     1 wow whoa that      
##  3     1 whoa that is       
##  4     1 that is some       
##  5     1 is some group      
##  6     1 some group of      
##  7     1 group of people    
##  8     1 of people thousands
##  9     1 people thousands so
## 10     1 thousands so nice  
## # ... with 235,079 more rows
## 
## $token_type
## [1] "ngrams"
## 
## $n
## [1] 3
## 
## attr(,"class")
…
